{
	"data_folder" : "/data/",
	"output_folder" : "/output/",
	"results_folder" : "/output/results/",

	"data_file_to_parse" : "Sel_exp2.edf",
	"stumuli_file_to_parse" : "Sel_exp2.htk",

	"multiprocessing" : 1,

	"before_stim_time_lag" : 0.2,
	"after_stim_time_lag" : 1,
	"Fs" : 500,
	"debug": 0,

	"electrode_labels" : [
		"Fp1",
		"Fp2",
		"F3",
		"F4", 
		"F7", 
		"F8", 
		"T3", 
		"T4", 
		"C3",
        "C4",
        "T5",
        "T6", 
        "P3",
        "P4", 
        "O1", 
        "O2", 
        "Fz", 
        "Cz", 
        "Pz"
    ]

}
